<?xml version="1.0" encoding="UTF-8" standalone="no"?>
<!-- Created with Inkscape (http://www.inkscape.org/) -->

<svg
   width="59.245728mm"
   height="119.31586mm"
   viewBox="0 0 59.245728 119.31588"
   version="1.1"
   id="svg1"
   inkscape:version="1.4 (1:1.4+202410161351+e7c3feb100)"
   sodipodi:docname="redistributed.svg"
   xmlns:inkscape="http://www.inkscape.org/namespaces/inkscape"
   xmlns:sodipodi="http://sodipodi.sourceforge.net/DTD/sodipodi-0.dtd"
   xmlns="http://www.w3.org/2000/svg"
   xmlns:svg="http://www.w3.org/2000/svg">
  <sodipodi:namedview
     id="namedview1"
     pagecolor="#ffffff"
     bordercolor="#666666"
     borderopacity="1.0"
     inkscape:showpageshadow="2"
     inkscape:pageopacity="0.0"
     inkscape:pagecheckerboard="0"
     inkscape:deskcolor="#d1d1d1"
     inkscape:document-units="mm"
     inkscape:zoom="2"
     inkscape:cx="191.5"
     inkscape:cy="283.75"
     inkscape:window-width="2560"
     inkscape:window-height="1363"
     inkscape:window-x="0"
     inkscape:window-y="0"
     inkscape:window-maximized="1"
     inkscape:current-layer="g32">
    <inkscape:page
       x="-1.5455129e-15"
       y="1.3061854e-14"
       width="59.245731"
       height="119.31587"
       id="page2"
       margin="0"
       bleed="0" />
  </sodipodi:namedview>
  <defs
     id="defs1">
    <marker
       style="overflow:visible"
       id="Dot"
       refX="0"
       refY="0"
       orient="auto"
       inkscape:stockid="Dot"
       markerWidth="0.2"
       markerHeight="0.2"
       viewBox="0 0 1 1"
       inkscape:isstock="true"
       inkscape:collect="always"
       preserveAspectRatio="xMidYMid">
      <path
         transform="scale(0.5)"
         style="fill:context-stroke;fill-rule:evenodd;stroke:none"
         d="M 5,0 C 5,2.76 2.76,5 0,5 -2.76,5 -5,2.76 -5,0 c 0,-2.76 2.3,-5 5,-5 2.76,0 5,2.24 5,5 z"
         sodipodi:nodetypes="sssss"
         id="path17" />
    </marker>
    <marker
       style="overflow:visible"
       id="Dot-1"
       refX="0"
       refY="0"
       orient="auto"
       inkscape:stockid="Dot"
       markerWidth="0.2"
       markerHeight="0.2"
       viewBox="0 0 1 1"
       inkscape:isstock="true"
       inkscape:collect="always"
       preserveAspectRatio="xMidYMid">
      <path
         transform="scale(0.5)"
         style="fill:context-stroke;fill-rule:evenodd;stroke:none"
         d="M 5,0 C 5,2.76 2.76,5 0,5 -2.76,5 -5,2.76 -5,0 c 0,-2.76 2.3,-5 5,-5 2.76,0 5,2.24 5,5 z"
         sodipodi:nodetypes="sssss"
         id="path17-3" />
    </marker>
  </defs>
  <g
     inkscape:label="Redraw"
     inkscape:groupmode="layer"
     id="layer1"
     transform="translate(-74.135998,-54.90091)">
    <g
       id="g34"
       inkscape:label="Connectors"
       style="stroke:#000000;stroke-width:0.396875;stroke-dasharray:none;stroke-opacity:1">
      <g
         id="g32"
         inkscape:label="Edge Connectors"
         style="display:inline;stroke:#000000;stroke-width:0.396875;stroke-dasharray:none;stroke-opacity:1"
         transform="translate(-1.0208333e-6)">
        <path
           style="display:inline;fill:none;fill-rule:evenodd;stroke:#000000;stroke-width:0.396875;stroke-linecap:butt;stroke-linejoin:miter;stroke-dasharray:none;stroke-opacity:1;marker-start:url(#Dot);marker-end:url(#Dot)"
           d="M 93.822838,65.416644 80.430548,61.078936"
           id="path29-8-27"
           inkscape:connector-type="polyline"
           inkscape:connector-curvature="0"
           inkscape:label="conn96"
           transform="translate(-1.0208333e-6)" />
        <path
           style="display:inline;fill:none;fill-rule:evenodd;stroke:#000000;stroke-width:0.396875;stroke-linecap:butt;stroke-linejoin:miter;stroke-dasharray:none;stroke-opacity:1;marker-start:url(#Dot);marker-end:url(#Dot)"
           d="M 109.18765,66.297699 96.122126,65.723061"
           id="path29-8-95"
           inkscape:connector-type="polyline"
           inkscape:connector-curvature="0"
           inkscape:label="conn94 (quadrant point)"
           transform="translate(-1.0208333e-6)" />
        <path
           style="display:inline;fill:none;fill-rule:evenodd;stroke:#000000;stroke-width:0.396875;stroke-linecap:butt;stroke-linejoin:miter;stroke-dasharray:none;stroke-opacity:1;marker-start:url(#Dot);marker-end:url(#Dot)"
           d="M 125.44185,56.662623 111.38854,65.74413"
           id="path29-8-76"
           inkscape:connector-type="polyline"
           inkscape:connector-curvature="0"
           inkscape:label="conn91"
           transform="translate(-1.0208333e-6)" />
        <path
           style="display:inline;fill:none;fill-rule:evenodd;stroke:#000000;stroke-width:0.396875;stroke-linecap:butt;stroke-linejoin:miter;stroke-dasharray:none;stroke-opacity:1;marker-start:url(#Dot);marker-end:url(#Dot)"
           d="m 128.74276,81.071185 -4.99483,-7.940417"
           id="path29-8-50"
           inkscape:connector-type="polyline"
           inkscape:connector-curvature="0"
           inkscape:label="conn82"
           transform="translate(-1.0208333e-6)" />
        <path
           style="display:inline;fill:none;fill-rule:evenodd;stroke:#000000;stroke-width:0.396875;stroke-linecap:butt;stroke-linejoin:miter;stroke-dasharray:none;stroke-opacity:1;marker-start:url(#Dot);marker-end:url(#Dot)"
           d="M 129.59424,100.12244 129.46849,83.159044"
           id="path29-8-98"
           inkscape:connector-type="polyline"
           inkscape:connector-curvature="0"
           inkscape:label="conn78 (quadrant point)"
           transform="translate(-1.0208333e-6)" />
        <path
           style="display:inline;fill:none;fill-rule:evenodd;stroke:#000000;stroke-width:0.396875;stroke-linecap:butt;stroke-linejoin:miter;stroke-dasharray:none;stroke-opacity:1;marker-start:url(#Dot);marker-end:url(#Dot)"
           d="m 130.603,108.51815 -0.97992,-6.08542"
           id="path29-8-443"
           inkscape:connector-type="polyline"
           inkscape:connector-curvature="0"
           inkscape:label="conn76"
           transform="translate(-1.0208333e-6)" />
        <path
           style="display:inline;fill:none;fill-rule:evenodd;stroke:#000000;stroke-width:0.396875;stroke-linecap:butt;stroke-linejoin:miter;stroke-dasharray:none;stroke-opacity:1;marker-start:url(#Dot);marker-end:url(#Dot)"
           d="M 75.599121,84.314293 79.722203,71.994474"
           id="path29-8-63"
           inkscape:connector-type="polyline"
           inkscape:connector-curvature="0"
           inkscape:label="conn68"
           transform="translate(-1.0208333e-6)" />
        <path
           style="display:inline;fill:none;fill-rule:evenodd;stroke:#000000;stroke-width:0.396875;stroke-linecap:butt;stroke-linejoin:miter;stroke-dasharray:none;stroke-opacity:1;marker-start:url(#Dot);marker-end:url(#Dot)"
           d="M 78.388054,100.25531 75.306061,86.617121"
           id="path29-8-08"
           inkscape:connector-type="polyline"
           inkscape:connector-curvature="0"
           inkscape:label="conn63 (quadrant point)"
           transform="translate(-1.0208333e-6)" />
        <path
           style="display:inline;fill:none;fill-rule:evenodd;stroke:#000000;stroke-width:0.396875;stroke-linecap:butt;stroke-linejoin:miter;stroke-dasharray:none;stroke-opacity:1;marker-start:url(#Dot);marker-end:url(#Dot)"
           d="M 80.599523,119.79846 78.705026,102.57384"
           id="path29-8-67"
           inkscape:connector-type="polyline"
           inkscape:connector-curvature="0"
           inkscape:label="conn57"
           transform="translate(-1.0208333e-6)" />
        <path
           style="display:inline;fill:none;fill-rule:evenodd;stroke:#000000;stroke-width:0.396875;stroke-linecap:butt;stroke-linejoin:miter;stroke-dasharray:none;stroke-opacity:1;marker-start:url(#Dot);marker-end:url(#Dot)"
           d="m 129.04683,120.23724 1.527,-9.3881"
           id="path29-8-0"
           inkscape:connector-type="polyline"
           inkscape:connector-curvature="0"
           inkscape:label="conn43"
           transform="translate(-1.0208333e-6)" />
        <path
           style="display:inline;fill:none;fill-rule:evenodd;stroke:#000000;stroke-width:0.396875;stroke-linecap:butt;stroke-linejoin:miter;stroke-dasharray:none;stroke-opacity:1;marker-start:url(#Dot);marker-end:url(#Dot)"
           d="m 131.96089,143.79781 -3.00871,-21.31914"
           id="path28"
           inkscape:connector-type="polyline"
           inkscape:connector-curvature="0"
           inkscape:label="conn1"
           transform="translate(-1.0208333e-6)" />
        <path
           style="display:inline;fill:#e2141e;fill-opacity:0.498272;fill-rule:evenodd;stroke:#000000;stroke-width:0.396875;stroke-linecap:butt;stroke-linejoin:miter;stroke-dasharray:none;stroke-opacity:1;marker-start:url(#Dot);marker-end:url(#Dot)"
           d="m 80.631067,122.12354 -1.207004,20.63829"
           id="path2"
           inkscape:connector-type="polyline"
           inkscape:connector-curvature="0"
           inkscape:label="conn5"
           transform="translate(-1.0208333e-6)" />
        <path
           style="display:inline;fill:none;fill-rule:evenodd;stroke:#000000;stroke-width:0.396875;stroke-linecap:butt;stroke-linejoin:miter;stroke-dasharray:none;stroke-opacity:1;marker-start:url(#Dot);marker-end:url(#Dot)"
           d="m 79.650068,145.0482 5.616414,16.6361"
           id="path3"
           inkscape:connector-type="polyline"
           inkscape:connector-curvature="0"
           inkscape:label="conn4"
           transform="translate(-1.0208333e-6)" />
        <path
           style="display:inline;fill:none;fill-rule:evenodd;stroke:#000000;stroke-width:0.396875;stroke-linecap:butt;stroke-linejoin:miter;stroke-dasharray:none;stroke-opacity:1;marker-start:url(#Dot);marker-end:url(#Dot)"
           d="m 80.375751,172.5603 14.525878,0.35715"
           id="path5"
           inkscape:connector-type="polyline"
           inkscape:connector-curvature="0"
           inkscape:label="conn2"
           transform="translate(-1.0208333e-6)" />
        <path
           style="display:inline;fill:none;fill-rule:evenodd;stroke:#000000;stroke-width:0.396875;stroke-linecap:butt;stroke-linejoin:miter;stroke-dasharray:none;stroke-opacity:1;marker-start:url(#Dot);marker-end:url(#Dot)"
           d="m 97.20108,172.76869 15.9661,-4.83482"
           id="path6"
           inkscape:connector-type="polyline"
           inkscape:connector-curvature="0"
           inkscape:label="conn6"
           transform="translate(-1.0208333e-6)" />
        <path
           style="display:inline;fill:none;fill-rule:evenodd;stroke:#000000;stroke-width:0.396875;stroke-linecap:butt;stroke-linejoin:miter;stroke-dasharray:none;stroke-opacity:1;marker-start:url(#Dot);marker-end:url(#Dot)"
           d="m 118.98123,157.66697 8.67898,-2.31573"
           id="path23"
           inkscape:connector-type="polyline"
           inkscape:connector-curvature="0"
           inkscape:label="conn23"
           transform="translate(-1.0208333e-6)" />
        <path
           style="display:inline;fill:none;fill-rule:evenodd;stroke:#000000;stroke-width:0.396875;stroke-linecap:butt;stroke-linejoin:miter;stroke-dasharray:none;stroke-opacity:1;marker-start:url(#Dot);marker-end:url(#Dot)"
           d="m 129.33324,154.19239 2.75747,-8.08791"
           id="path24"
           inkscape:connector-type="polyline"
           inkscape:connector-curvature="0"
           inkscape:label="conn24"
           transform="translate(-1.0208333e-6)" />
        <path
           style="display:inline;fill:none;fill-rule:evenodd;stroke:#000000;stroke-width:0.396875;stroke-linecap:butt;stroke-linejoin:miter;stroke-dasharray:none;stroke-opacity:1;marker-start:url(#Dot);marker-end:url(#Dot)"
           d="m 80.284047,143.26986 8.287244,-6.56718"
           id="path12"
           inkscape:connector-type="polyline"
           inkscape:connector-curvature="0"
           inkscape:label="conn14" />
        <path
           style="display:inline;fill:none;fill-rule:evenodd;stroke:#000000;stroke-width:0.396875;stroke-linecap:butt;stroke-linejoin:miter;stroke-dasharray:none;stroke-opacity:1;marker-start:url(#Dot);marker-end:url(#Dot)"
           d="m 105.79139,161.80768 7.52336,4.93985"
           id="path20"
           inkscape:connector-type="polyline"
           inkscape:connector-curvature="0"
           inkscape:label="conn20" />
        <path
           style="display:inline;fill:none;fill-rule:evenodd;stroke:#000000;stroke-width:0.396875;stroke-linecap:butt;stroke-linejoin:miter;stroke-dasharray:none;stroke-opacity:1;marker-start:url(#Dot);marker-end:url(#Dot)"
           d="m 128.02749,120.36404 -4.505,-5.92773"
           id="path29-8-7"
           inkscape:connector-type="polyline"
           inkscape:connector-curvature="0"
           inkscape:label="conn44" />
        <path
           style="display:inline;fill:none;fill-rule:evenodd;stroke:#000000;stroke-width:0.396875;stroke-linecap:butt;stroke-linejoin:miter;stroke-dasharray:none;stroke-opacity:1;marker-start:url(#Dot);marker-end:url(#Dot)"
           d="m 92.769701,116.73027 -11.14614,3.96785"
           id="path29-8-89"
           inkscape:connector-type="polyline"
           inkscape:connector-curvature="0"
           inkscape:label="conn54" />
        <path
           style="display:inline;fill:none;fill-rule:evenodd;stroke:#000000;stroke-width:0.396875;stroke-linecap:butt;stroke-linejoin:miter;stroke-dasharray:none;stroke-opacity:1;marker-start:url(#Dot);marker-end:url(#Dot)"
           d="m 81.256294,120.08396 6.946639,-9.19347"
           id="path29-8-72"
           inkscape:connector-type="polyline"
           inkscape:connector-curvature="0"
           inkscape:label="conn55" />
        <path
           style="display:inline;fill:none;fill-rule:evenodd;stroke:#000000;stroke-width:0.396875;stroke-linecap:butt;stroke-linejoin:miter;stroke-dasharray:none;stroke-opacity:1;marker-start:url(#Dot);marker-end:url(#Dot)"
           d="m 88.106313,109.27924 -8.741044,-7.02422"
           id="path29-8-53"
           inkscape:connector-type="polyline"
           inkscape:connector-curvature="0"
           inkscape:label="conn58" />
        <path
           style="display:inline;fill:none;fill-rule:evenodd;stroke:#000000;stroke-width:0.396875;stroke-linecap:butt;stroke-linejoin:miter;stroke-dasharray:none;stroke-opacity:1;marker-start:url(#Dot);marker-end:url(#Dot)"
           d="m 128.43324,82.534233 -14.04141,8.172198"
           id="path29-8-48"
           inkscape:connector-type="polyline"
           inkscape:connector-curvature="0"
           inkscape:label="conn81" />
        <path
           style="display:inline;fill:none;fill-rule:evenodd;stroke:#000000;stroke-width:0.396875;stroke-linecap:butt;stroke-linejoin:miter;stroke-dasharray:none;stroke-opacity:1;marker-start:url(#Dot);marker-end:url(#Dot)"
           d="m 127.73285,122.04857 -7.91269,8.36111"
           id="path29-64"
           inkscape:connector-type="polyline"
           inkscape:connector-curvature="0"
           inkscape:label="conn100" />
        <path
           style="display:inline;fill:none;fill-rule:evenodd;stroke:#000000;stroke-width:0.396875;stroke-linecap:butt;stroke-linejoin:miter;stroke-dasharray:none;stroke-opacity:1;marker-start:url(#Dot);marker-end:url(#Dot)"
           d="m 79.994081,171.46271 5.094755,-7.68324"
           id="path4"
           inkscape:connector-type="polyline"
           inkscape:connector-curvature="0"
           inkscape:label="conn3" />
        <path
           style="display:inline;fill:none;fill-rule:evenodd;stroke:#000000;stroke-width:0.396875;stroke-linecap:butt;stroke-linejoin:miter;stroke-dasharray:none;stroke-opacity:1;marker-start:url(#Dot);marker-end:url(#Dot)"
           d="M 80.022202,69.693464 79.297951,61.652732"
           id="path29-8-51"
           inkscape:connector-type="polyline"
           inkscape:connector-curvature="0"
           inkscape:label="conn97 (quadrant point)" />
        <path
           style="display:inline;fill:none;fill-rule:evenodd;stroke:#000000;stroke-width:0.396875;stroke-linecap:butt;stroke-linejoin:miter;stroke-dasharray:none;stroke-opacity:1;marker-start:url(#Dot);marker-end:url(#Dot)"
           d="m 123.55266,70.894255 2.5067,-13.720821"
           id="path29-8-07"
           inkscape:connector-type="polyline"
           inkscape:connector-curvature="0"
           inkscape:label="conn89" />
        <path
           style="display:inline;fill:none;fill-rule:evenodd;stroke:#000000;stroke-width:0.396875;stroke-linecap:butt;stroke-linejoin:miter;stroke-dasharray:none;stroke-opacity:1;marker-start:url(#Dot);marker-end:url(#Dot)"
           d="m 122.30328,72.617878 -7.375,4.388484"
           id="path29-8-10"
           inkscape:connector-type="polyline"
           inkscape:connector-curvature="0"
           inkscape:label="conn88" />
        <path
           style="display:inline;fill:none;fill-rule:evenodd;stroke:#000000;stroke-width:0.396875;stroke-linecap:butt;stroke-linejoin:miter;stroke-dasharray:none;stroke-opacity:1;marker-start:url(#Dot);marker-end:url(#Dot)"
           d="m 113.63099,76.349236 -2.99329,-8.91547"
           id="path29-8-88"
           inkscape:connector-type="polyline"
           inkscape:connector-curvature="0"
           inkscape:label="conn90" />
        <path
           style="display:inline;fill:none;fill-rule:evenodd;stroke:#000000;stroke-width:0.396875;stroke-linecap:butt;stroke-linejoin:miter;stroke-dasharray:none;stroke-opacity:1;marker-start:url(#Dot);marker-end:url(#Dot)"
           d="m 103.51456,79.111984 6.35449,-11.751152"
           id="path29-8-84"
           inkscape:connector-type="polyline"
           inkscape:connector-curvature="0"
           inkscape:label="conn92" />
        <path
           style="display:inline;fill:none;fill-rule:evenodd;stroke:#000000;stroke-width:0.396875;stroke-linecap:butt;stroke-linejoin:miter;stroke-dasharray:none;stroke-opacity:1;marker-start:url(#Dot);marker-end:url(#Dot)"
           d="M 102.15429,78.960129 95.599966,66.697364"
           id="path29-8-57"
           inkscape:connector-type="polyline"
           inkscape:connector-curvature="0"
           inkscape:label="conn93" />
        <path
           style="display:inline;fill:none;fill-rule:evenodd;stroke:#000000;stroke-width:0.396875;stroke-linecap:butt;stroke-linejoin:miter;stroke-dasharray:none;stroke-opacity:1;marker-start:url(#Dot);marker-end:url(#Dot)"
           d="m 94.588411,66.835175 -4.501023,10.07674"
           id="path29-8-29"
           inkscape:connector-type="polyline"
           inkscape:connector-curvature="0"
           inkscape:label="conn95" />
        <path
           style="display:inline;fill:none;fill-rule:evenodd;stroke:#000000;stroke-width:0.396875;stroke-linecap:butt;stroke-linejoin:miter;stroke-dasharray:none;stroke-opacity:1;marker-start:url(#Dot);marker-end:url(#Dot)"
           d="m 128.29301,100.97632 -9.52572,-2.194533"
           id="path29-8-34"
           inkscape:connector-type="polyline"
           inkscape:connector-curvature="0"
           inkscape:label="conn77" />
        <path
           style="display:inline;fill:none;fill-rule:evenodd;stroke:#000000;stroke-width:0.396875;stroke-linecap:butt;stroke-linejoin:miter;stroke-dasharray:none;stroke-opacity:1;marker-start:url(#Dot);marker-end:url(#Dot)"
           d="M 128.93353,83.029589 118.41206,97.67425"
           id="path29-8-04"
           inkscape:connector-type="polyline"
           inkscape:connector-curvature="0"
           inkscape:label="conn79" />
        <path
           style="display:inline;fill:none;fill-rule:evenodd;stroke:#000000;stroke-width:0.396875;stroke-linecap:butt;stroke-linejoin:miter;stroke-dasharray:none;stroke-opacity:1;marker-start:url(#Dot);marker-end:url(#Dot)"
           d="M 88.593188,77.213609 80.891274,71.646952"
           id="path29-8-90"
           inkscape:connector-type="polyline"
           inkscape:connector-curvature="0"
           inkscape:label="conn69" />
        <path
           style="display:inline;fill:none;fill-rule:evenodd;stroke:#000000;stroke-width:0.396875;stroke-linecap:butt;stroke-linejoin:miter;stroke-dasharray:none;stroke-opacity:1;marker-start:url(#Dot);marker-end:url(#Dot)"
           d="M 83.382702,87.670257 76.414955,85.820418"
           id="path29-8-081"
           inkscape:connector-type="polyline"
           inkscape:connector-curvature="0"
           inkscape:label="conn64" />
        <path
           style="display:inline;fill:none;fill-rule:evenodd;stroke:#000000;stroke-width:0.396875;stroke-linecap:butt;stroke-linejoin:miter;stroke-dasharray:none;stroke-opacity:1;marker-start:url(#Dot);marker-end:url(#Dot)"
           d="M 84.901423,97.39753 79.4326,100.64341"
           id="path29-8-71"
           inkscape:connector-type="polyline"
           inkscape:connector-curvature="0"
           inkscape:label="conn60" />
        <path
           style="display:inline;fill:none;fill-rule:evenodd;stroke:#000000;stroke-width:0.396875;stroke-linecap:butt;stroke-linejoin:miter;stroke-dasharray:none;stroke-opacity:1;marker-start:url(#Dot);marker-end:url(#Dot)"
           d="M 127.50759,121.18585 116.0031,120.42889"
           id="path29-6"
           inkscape:connector-type="polyline"
           inkscape:connector-curvature="0"
           inkscape:label="conn42" />
        <path
           style="display:inline;fill:none;fill-rule:evenodd;stroke:#000000;stroke-width:0.396875;stroke-linecap:butt;stroke-linejoin:miter;stroke-dasharray:none;stroke-opacity:1;marker-start:url(#Dot);marker-end:url(#Dot)"
           d="m 129.7314,110.35494 -5.67669,2.70833"
           id="path29-8-60"
           inkscape:connector-type="polyline"
           inkscape:connector-curvature="0"
           inkscape:label="conn45" />
        <path
           style="display:inline;fill:none;fill-rule:evenodd;stroke:#000000;stroke-width:0.396875;stroke-linecap:butt;stroke-linejoin:miter;stroke-dasharray:none;stroke-opacity:1;marker-start:url(#Dot);marker-end:url(#Dot)"
           d="M 88.921083,134.76329 81.086914,121.96544"
           id="path29-8-44"
           inkscape:connector-type="polyline"
           inkscape:connector-curvature="0"
           inkscape:label="conn37" />
        <path
           style="display:inline;fill:none;fill-rule:evenodd;stroke:#000000;stroke-width:0.396875;stroke-linecap:butt;stroke-linejoin:miter;stroke-dasharray:none;stroke-opacity:1;marker-start:url(#Dot);marker-end:url(#Dot)"
           d="m 121.54988,148.9351 -3.18769,7.88401"
           id="path27"
           inkscape:connector-type="polyline"
           inkscape:connector-curvature="0"
           inkscape:label="conn27" />
        <path
           style="display:inline;fill:none;fill-rule:evenodd;stroke:#000000;stroke-width:0.396875;stroke-linecap:butt;stroke-linejoin:miter;stroke-dasharray:none;stroke-opacity:1;marker-start:url(#Dot);marker-end:url(#Dot)"
           d="m 114.82252,166.45061 2.50585,-7.53251"
           id="path21"
           inkscape:connector-type="polyline"
           inkscape:connector-curvature="0"
           inkscape:label="conn21" />
        <path
           style="display:inline;fill:none;fill-rule:evenodd;stroke:#000000;stroke-width:0.396875;stroke-linecap:butt;stroke-linejoin:miter;stroke-dasharray:none;stroke-opacity:1;marker-start:url(#Dot);marker-end:url(#Dot)"
           d="m 116.74,158.29231 -10.79375,2.7791"
           id="path22"
           inkscape:connector-type="polyline"
           inkscape:connector-curvature="0"
           inkscape:label="conn22" />
        <path
           style="display:inline;fill:none;fill-rule:evenodd;stroke:#000000;stroke-width:0.396875;stroke-linecap:butt;stroke-linejoin:miter;stroke-dasharray:none;stroke-opacity:1;marker-start:url(#Dot);marker-end:url(#Dot)"
           d="m 122.86813,148.54093 5.21388,5.80224"
           id="path25"
           inkscape:connector-type="polyline"
           inkscape:connector-curvature="0"
           inkscape:label="conn25" />
        <path
           style="display:inline;fill:none;fill-rule:evenodd;stroke:#000000;stroke-width:0.396875;stroke-linecap:butt;stroke-linejoin:miter;stroke-dasharray:none;stroke-opacity:1;marker-start:url(#Dot);marker-end:url(#Dot)"
           d="m 131.13355,145.39534 -8.0605,2.15236"
           id="path26"
           inkscape:connector-type="polyline"
           inkscape:connector-curvature="0"
           inkscape:label="conn26" />
        <path
           style="display:inline;fill:none;fill-rule:evenodd;stroke:#000000;stroke-width:0.396875;stroke-linecap:butt;stroke-linejoin:miter;stroke-dasharray:none;stroke-opacity:1;marker-start:url(#Dot);marker-end:url(#Dot)"
           d="m 95.14797,162.8483 0.770423,9.03751"
           id="path7"
           inkscape:connector-type="polyline"
           inkscape:connector-curvature="0"
           inkscape:label="conn7" />
        <path
           style="display:inline;fill:none;fill-rule:evenodd;stroke:#000000;stroke-width:0.396875;stroke-linecap:butt;stroke-linejoin:miter;stroke-dasharray:none;stroke-opacity:1;marker-start:url(#Dot);marker-end:url(#Dot)"
           d="m 86.353861,161.81221 6.151581,-7.56909"
           id="path9"
           inkscape:connector-type="polyline"
           inkscape:connector-curvature="0"
           inkscape:label="conn11" />
        <path
           style="display:inline;fill:none;fill-rule:evenodd;stroke:#000000;stroke-width:0.396875;stroke-linecap:butt;stroke-linejoin:miter;stroke-dasharray:none;stroke-opacity:1;marker-start:url(#Dot);marker-end:url(#Dot)"
           d="M 92.10601,152.63503 80.312735,144.5395"
           id="path11"
           inkscape:connector-type="polyline"
           inkscape:connector-curvature="0"
           inkscape:label="conn13" />
        <path
           style="display:inline;fill:none;fill-rule:evenodd;stroke:#000000;stroke-width:0.396875;stroke-linecap:butt;stroke-linejoin:miter;stroke-dasharray:none;stroke-opacity:1;marker-start:url(#Dot);marker-end:url(#Dot)"
           d="m 86.84881,162.61809 6.973181,-0.83976"
           id="path18"
           inkscape:connector-type="polyline"
           inkscape:connector-curvature="0"
           inkscape:label="conn10" />
      </g>
      <g
         id="g3"
         inkscape:label="Core Connectors"
         style="display:inline;stroke:#000000;stroke-width:0.396875;stroke-dasharray:none;stroke-opacity:1"
         transform="translate(-1.0208333e-6)">
        <path
           style="display:inline;fill:none;fill-rule:evenodd;stroke:#000000;stroke-width:0.396875;stroke-linecap:butt;stroke-linejoin:miter;stroke-dasharray:none;stroke-opacity:1;marker-start:url(#Dot);marker-end:url(#Dot)"
           d="m 93.381902,154.37735 1.297863,6.18323"
           id="path10"
           inkscape:connector-type="polyline"
           inkscape:connector-curvature="0"
           inkscape:label="conn12" />
        <path
           style="display:inline;fill:none;fill-rule:evenodd;stroke:#000000;stroke-width:0.396875;stroke-linecap:butt;stroke-linejoin:miter;stroke-dasharray:none;stroke-opacity:1;marker-start:url(#Dot);marker-end:url(#Dot)"
           d="m 90.452509,136.28208 6.925603,3.12523"
           id="path13"
           inkscape:connector-type="polyline"
           inkscape:connector-curvature="0"
           inkscape:label="conn15" />
        <path
           style="display:inline;fill:none;fill-rule:evenodd;stroke:#000000;stroke-width:0.396875;stroke-linecap:butt;stroke-linejoin:miter;stroke-dasharray:none;stroke-opacity:1;marker-start:url(#Dot);marker-end:url(#Dot)"
           d="m 93.610629,152.18349 4.622295,-11.11603"
           id="path14"
           inkscape:connector-type="polyline"
           inkscape:connector-curvature="0"
           inkscape:label="conn16" />
        <path
           style="display:inline;fill:none;fill-rule:evenodd;stroke:#000000;stroke-width:0.396875;stroke-linecap:butt;stroke-linejoin:miter;stroke-dasharray:none;stroke-opacity:1;marker-start:url(#Dot);marker-end:url(#Dot)"
           d="m 94.057798,152.55714 10.450422,-6.86203"
           id="path15"
           inkscape:connector-type="polyline"
           inkscape:connector-curvature="0"
           inkscape:label="conn17" />
        <path
           style="display:inline;fill:none;fill-rule:evenodd;stroke:#000000;stroke-width:0.396875;stroke-linecap:butt;stroke-linejoin:miter;stroke-dasharray:none;stroke-opacity:1;marker-start:url(#Dot);marker-end:url(#Dot)"
           d="m 99.395467,140.5792 5.164093,3.688"
           id="path16"
           inkscape:connector-type="polyline"
           inkscape:connector-curvature="0"
           inkscape:label="conn18" />
        <path
           style="display:inline;fill:none;fill-rule:evenodd;stroke:#000000;stroke-width:0.396875;stroke-linecap:butt;stroke-linejoin:miter;stroke-dasharray:none;stroke-opacity:1;marker-start:url(#Dot);marker-end:url(#Dot)"
           d="m 96.154913,161.59496 7.468997,-0.23575"
           id="path19"
           inkscape:connector-type="polyline"
           inkscape:connector-curvature="0"
           inkscape:label="conn19" />
        <path
           style="display:inline;fill:none;fill-rule:evenodd;stroke:#000000;stroke-width:0.396875;stroke-linecap:butt;stroke-linejoin:miter;stroke-dasharray:none;stroke-opacity:1;marker-start:url(#Dot);marker-end:url(#Dot)"
           d="m 121.93787,146.66118 -2.69662,-14.46006"
           id="path29"
           inkscape:connector-type="polyline"
           inkscape:connector-curvature="0"
           inkscape:label="conn28 (quadrant point gets in the way)" />
        <path
           style="display:inline;fill:none;fill-rule:evenodd;stroke:#000000;stroke-width:0.396875;stroke-linecap:butt;stroke-linejoin:miter;stroke-dasharray:none;stroke-opacity:1;marker-start:url(#Dot);marker-end:url(#Dot)"
           d="m 110.35554,137.19436 -6.8647,-7.05605"
           id="path29-8"
           inkscape:connector-type="polyline"
           inkscape:connector-curvature="0"
           inkscape:label="conn29" />
        <path
           style="display:inline;fill:none;fill-rule:evenodd;stroke:#000000;stroke-width:0.396875;stroke-linecap:butt;stroke-linejoin:miter;stroke-dasharray:none;stroke-opacity:1;marker-start:url(#Dot);marker-end:url(#Dot)"
           d="m 121.12295,146.99162 -8.91557,-8.36737"
           id="path29-8-5"
           inkscape:connector-type="polyline"
           inkscape:connector-curvature="0"
           inkscape:label="conn30" />
        <path
           style="display:inline;fill:none;fill-rule:evenodd;stroke:#000000;stroke-width:0.396875;stroke-linecap:butt;stroke-linejoin:miter;stroke-dasharray:none;stroke-opacity:1;marker-start:url(#Dot);marker-end:url(#Dot)"
           d="m 120.78737,147.61819 -14.18662,-2.34383"
           id="path29-8-9"
           inkscape:connector-type="polyline"
           inkscape:connector-curvature="0"
           inkscape:label="conn31" />
        <path
           style="display:inline;fill:none;fill-rule:evenodd;stroke:#000000;stroke-width:0.396875;stroke-linecap:butt;stroke-linejoin:miter;stroke-dasharray:none;stroke-opacity:1;marker-start:url(#Dot);marker-end:url(#Dot)"
           d="m 110.45438,138.70343 -4.23471,5.42117"
           id="path29-8-3"
           inkscape:connector-type="polyline"
           inkscape:connector-curvature="0"
           inkscape:label="conn32" />
        <path
           style="display:inline;fill:none;fill-rule:evenodd;stroke:#000000;stroke-width:0.396875;stroke-linecap:butt;stroke-linejoin:miter;stroke-dasharray:none;stroke-opacity:1;marker-start:url(#Dot);marker-end:url(#Dot)"
           d="m 104.95469,160.05387 0.72158,-13.88954"
           id="path29-8-91"
           inkscape:connector-type="polyline"
           inkscape:connector-curvature="0"
           inkscape:label="conn33" />
        <path
           style="display:inline;fill:none;fill-rule:evenodd;stroke:#000000;stroke-width:0.396875;stroke-linecap:butt;stroke-linejoin:miter;stroke-dasharray:none;stroke-opacity:1;marker-start:url(#Dot);marker-end:url(#Dot)"
           d="M 110.15116,138.13241 99.594063,139.7737"
           id="path29-8-4"
           inkscape:connector-type="polyline"
           inkscape:connector-curvature="0"
           inkscape:label="conn34" />
        <path
           style="display:inline;fill:none;fill-rule:evenodd;stroke:#000000;stroke-width:0.396875;stroke-linecap:butt;stroke-linejoin:miter;stroke-dasharray:none;stroke-opacity:1;marker-start:url(#Dot);marker-end:url(#Dot)"
           d="m 99.016678,138.90075 3.520492,-8.55497"
           id="path29-8-2"
           inkscape:connector-type="polyline"
           inkscape:connector-curvature="0"
           inkscape:label="conn35" />
        <path
           style="display:inline;fill:none;fill-rule:evenodd;stroke:#000000;stroke-width:0.396875;stroke-linecap:butt;stroke-linejoin:miter;stroke-dasharray:none;stroke-opacity:1;marker-start:url(#Dot);marker-end:url(#Dot)"
           d="m 101.84825,129.90006 -11.387765,5.52818"
           id="path29-8-38"
           inkscape:connector-type="polyline"
           inkscape:connector-curvature="0"
           inkscape:label="conn36" />
        <path
           style="display:inline;fill:none;fill-rule:evenodd;stroke:#000000;stroke-width:0.396875;stroke-linecap:butt;stroke-linejoin:miter;stroke-dasharray:none;stroke-opacity:1;marker-start:url(#Dot);marker-end:url(#Dot)"
           d="m 89.676371,134.71652 4.084435,-17.17027"
           id="path29-8-43"
           inkscape:connector-type="polyline"
           inkscape:connector-curvature="0"
           inkscape:label="conn38" />
        <path
           style="display:inline;fill:none;fill-rule:evenodd;stroke:#000000;stroke-width:0.396875;stroke-linecap:butt;stroke-linejoin:miter;stroke-dasharray:none;stroke-opacity:1;marker-start:url(#Dot);marker-end:url(#Dot)"
           d="M 102.45987,128.07978 94.639921,117.27869"
           id="path29-8-6"
           inkscape:connector-type="polyline"
           inkscape:connector-curvature="0"
           inkscape:label="conn39" />
        <path
           style="display:inline;fill:none;fill-rule:evenodd;stroke:#000000;stroke-width:0.396875;stroke-linecap:butt;stroke-linejoin:miter;stroke-dasharray:none;stroke-opacity:1;marker-start:url(#Dot);marker-end:url(#Dot)"
           d="m 102.99706,128.05169 0.31404,-10.45796"
           id="path29-8-8"
           inkscape:connector-type="polyline"
           inkscape:connector-curvature="0"
           inkscape:label="conn40" />
        <path
           style="display:inline;fill:none;fill-rule:evenodd;stroke:#000000;stroke-width:0.396875;stroke-linecap:butt;stroke-linejoin:miter;stroke-dasharray:none;stroke-opacity:1;marker-start:url(#Dot);marker-end:url(#Dot)"
           d="m 113.85729,120.94061 -10.01965,7.7454"
           id="path29-8-383"
           inkscape:connector-type="polyline"
           inkscape:connector-curvature="0"
           inkscape:label="conn41" />
        <path
           style="display:inline;fill:none;fill-rule:evenodd;stroke:#000000;stroke-width:0.396875;stroke-linecap:butt;stroke-linejoin:miter;stroke-dasharray:none;stroke-opacity:1;marker-start:url(#Dot);marker-end:url(#Dot)"
           d="m 121.77066,113.42113 -6.36412,0.5552"
           id="path29-8-24"
           inkscape:connector-type="polyline"
           inkscape:connector-curvature="0"
           inkscape:label="conn46 (quardant point)" />
        <path
           style="display:inline;fill:none;fill-rule:evenodd;stroke:#000000;stroke-width:0.396875;stroke-linecap:butt;stroke-linejoin:miter;stroke-dasharray:none;stroke-opacity:1;marker-start:url(#Dot);marker-end:url(#Dot)"
           d="m 114.25473,114.94051 0.35533,4.21712"
           id="path29-8-78"
           inkscape:connector-type="polyline"
           inkscape:connector-curvature="0"
           inkscape:label="conn47" />
        <path
           style="display:inline;fill:none;fill-rule:evenodd;stroke:#000000;stroke-width:0.396875;stroke-linecap:butt;stroke-linejoin:miter;stroke-dasharray:none;stroke-opacity:1;marker-start:url(#Dot);marker-end:url(#Dot)"
           d="m 113.71081,119.99702 -9.43807,-3.30905"
           id="path29-8-94"
           inkscape:connector-type="polyline"
           inkscape:connector-curvature="0"
           inkscape:label="conn49" />
        <path
           style="display:inline;fill:none;fill-rule:evenodd;stroke:#000000;stroke-width:0.396875;stroke-linecap:butt;stroke-linejoin:miter;stroke-dasharray:none;stroke-opacity:1;marker-start:url(#Dot);marker-end:url(#Dot)"
           d="m 113.12989,114.0926 -8.86282,2.07045"
           id="path29-8-782"
           inkscape:connector-type="polyline"
           inkscape:connector-curvature="0"
           inkscape:label="conn50" />
        <path
           style="display:inline;fill:none;fill-rule:evenodd;stroke:#000000;stroke-width:0.396875;stroke-linecap:butt;stroke-linejoin:miter;stroke-dasharray:none;stroke-opacity:1;marker-start:url(#Dot);marker-end:url(#Dot)"
           d="m 103.31576,115.28264 0.30355,-9.09476"
           id="path29-8-62"
           inkscape:connector-type="polyline"
           inkscape:connector-curvature="0"
           inkscape:label="conn51 (quardrant point)" />
        <path
           style="display:inline;fill:none;fill-rule:evenodd;stroke:#000000;stroke-width:0.396875;stroke-linecap:butt;stroke-linejoin:miter;stroke-dasharray:none;stroke-opacity:1;marker-start:url(#Dot);marker-end:url(#Dot)"
           d="m 113.41387,112.95682 -8.8617,-7.23273"
           id="path29-8-05"
           inkscape:connector-type="polyline"
           inkscape:connector-curvature="0"
           inkscape:label="conn52" />
        <path
           style="display:inline;fill:none;fill-rule:evenodd;stroke:#000000;stroke-width:0.396875;stroke-linecap:butt;stroke-linejoin:miter;stroke-dasharray:none;stroke-opacity:1;marker-start:url(#Dot);marker-end:url(#Dot)"
           d="m 102.48578,105.30791 -12.405908,4.27516"
           id="path29-8-85"
           inkscape:connector-type="polyline"
           inkscape:connector-curvature="0"
           inkscape:label="conn53" />
        <path
           style="display:inline;fill:none;fill-rule:evenodd;stroke:#000000;stroke-width:0.396875;stroke-linecap:butt;stroke-linejoin:miter;stroke-dasharray:none;stroke-opacity:1;marker-start:url(#Dot);marker-end:url(#Dot)"
           d="m 93.357388,115.3397 -3.505253,-4.50345"
           id="path29-8-45"
           inkscape:connector-type="polyline"
           inkscape:connector-curvature="0"
           inkscape:label="conn56" />
        <path
           style="display:inline;fill:none;fill-rule:evenodd;stroke:#000000;stroke-width:0.396875;stroke-linecap:butt;stroke-linejoin:miter;stroke-dasharray:none;stroke-opacity:1;marker-start:url(#Dot);marker-end:url(#Dot)"
           d="M 88.585229,108.94018 86.188271,97.841989"
           id="path29-8-1"
           inkscape:connector-type="polyline"
           inkscape:connector-curvature="0"
           inkscape:label="conn59" />
        <path
           style="display:inline;fill:none;fill-rule:evenodd;stroke:#000000;stroke-width:0.396875;stroke-linecap:butt;stroke-linejoin:miter;stroke-dasharray:none;stroke-opacity:1;marker-start:url(#Dot);marker-end:url(#Dot)"
           d="M 91.73689,92.994845 86.956323,96.32363"
           id="path29-8-37"
           inkscape:connector-type="polyline"
           inkscape:connector-curvature="0"
           inkscape:label="conn61" />
        <path
           style="display:inline;fill:none;fill-rule:evenodd;stroke:#000000;stroke-width:0.396875;stroke-linecap:butt;stroke-linejoin:miter;stroke-dasharray:none;stroke-opacity:1;marker-start:url(#Dot);marker-end:url(#Dot)"
           d="M 85.714554,95.5587 84.646139,89.008799"
           id="path29-8-74"
           inkscape:connector-type="polyline"
           inkscape:connector-curvature="0"
           inkscape:label="conn62" />
        <path
           style="display:inline;fill:none;fill-rule:evenodd;stroke:#000000;stroke-width:0.396875;stroke-linecap:butt;stroke-linejoin:miter;stroke-dasharray:none;stroke-opacity:1;marker-start:url(#Dot);marker-end:url(#Dot)"
           d="M 91.475433,91.858381 85.568025,88.402065"
           id="path29-8-79"
           inkscape:connector-type="polyline"
           inkscape:connector-curvature="0"
           inkscape:label="conn65" />
        <path
           style="display:inline;fill:none;fill-rule:evenodd;stroke:#000000;stroke-width:0.396875;stroke-linecap:butt;stroke-linejoin:miter;stroke-dasharray:none;stroke-opacity:1;marker-start:url(#Dot);marker-end:url(#Dot)"
           d="M 92.428664,91.040962 89.837531,79.057982"
           id="path29-8-39"
           inkscape:connector-type="polyline"
           inkscape:connector-curvature="0"
           inkscape:label="conn66" />
        <path
           style="display:inline;fill:none;fill-rule:evenodd;stroke:#000000;stroke-width:0.396875;stroke-linecap:butt;stroke-linejoin:miter;stroke-dasharray:none;stroke-opacity:1;marker-start:url(#Dot);marker-end:url(#Dot)"
           d="m 89.0263,78.995628 -4.049622,7.762483"
           id="path29-8-385"
           inkscape:connector-type="polyline"
           inkscape:connector-curvature="0"
           inkscape:label="conn67" />
        <path
           style="display:inline;fill:none;fill-rule:evenodd;stroke:#000000;stroke-width:0.396875;stroke-linecap:butt;stroke-linejoin:miter;stroke-dasharray:none;stroke-opacity:1;marker-start:url(#Dot);marker-end:url(#Dot)"
           d="M 101.58234,79.747089 90.669907,78.126674"
           id="path29-8-3851"
           inkscape:connector-type="polyline"
           inkscape:connector-curvature="0"
           inkscape:label="conn70" />
        <path
           style="display:inline;fill:none;fill-rule:evenodd;stroke:#000000;stroke-width:0.396875;stroke-linecap:butt;stroke-linejoin:miter;stroke-dasharray:none;stroke-opacity:1;marker-start:url(#Dot);marker-end:url(#Dot)"
           d="M 102.82128,104.16214 93.376595,93.069681"
           id="path29-8-11"
           inkscape:connector-type="polyline"
           inkscape:connector-curvature="0"
           inkscape:label="conn71" />
        <path
           style="display:inline;fill:none;fill-rule:evenodd;stroke:#000000;stroke-width:0.396875;stroke-linecap:butt;stroke-linejoin:miter;stroke-dasharray:none;stroke-opacity:1;marker-start:url(#Dot);marker-end:url(#Dot)"
           d="m 103.79249,103.86065 0.2648,-12.065643"
           id="path29-8-56"
           inkscape:connector-type="polyline"
           inkscape:connector-curvature="0"
           inkscape:label="conn72" />
        <path
           style="display:inline;fill:none;fill-rule:evenodd;stroke:#000000;stroke-width:0.396875;stroke-linecap:butt;stroke-linejoin:miter;stroke-dasharray:none;stroke-opacity:1;marker-start:url(#Dot);marker-end:url(#Dot)"
           d="m 116.51978,98.928241 -11.81449,5.654049"
           id="path29-8-15"
           inkscape:connector-type="polyline"
           inkscape:connector-curvature="0"
           inkscape:label="conn73" />
        <path
           style="display:inline;fill:none;fill-rule:evenodd;stroke:#000000;stroke-width:0.396875;stroke-linecap:butt;stroke-linejoin:miter;stroke-dasharray:none;stroke-opacity:1;marker-start:url(#Dot);marker-end:url(#Dot)"
           d="m 114.51773,112.63033 2.88148,-12.943738"
           id="path29-8-910"
           inkscape:connector-type="polyline"
           inkscape:connector-curvature="0"
           inkscape:label="conn74" />
        <path
           style="display:inline;fill:none;fill-rule:evenodd;stroke:#000000;stroke-width:0.396875;stroke-linecap:butt;stroke-linejoin:miter;stroke-dasharray:none;stroke-opacity:1;marker-start:url(#Dot);marker-end:url(#Dot)"
           d="M 122.53643,112.32313 117.974,99.654246"
           id="path29-8-70"
           inkscape:connector-type="polyline"
           inkscape:connector-curvature="0"
           inkscape:label="conn75" />
        <path
           style="display:inline;fill:none;fill-rule:evenodd;stroke:#000000;stroke-width:0.396875;stroke-linecap:butt;stroke-linejoin:miter;stroke-dasharray:none;stroke-opacity:1;marker-start:url(#Dot);marker-end:url(#Dot)"
           d="m 117.03423,97.526906 -3.40144,-5.378741"
           id="path29-8-96"
           inkscape:connector-type="polyline"
           inkscape:connector-curvature="0"
           inkscape:label="conn80" />
        <path
           style="display:inline;fill:none;fill-rule:evenodd;stroke:#000000;stroke-width:0.396875;stroke-linecap:butt;stroke-linejoin:miter;stroke-dasharray:none;stroke-opacity:1;marker-start:url(#Dot);marker-end:url(#Dot)"
           d="m 113.26916,89.86598 0.75733,-11.211486"
           id="path29-8-13"
           inkscape:connector-type="polyline"
           inkscape:connector-curvature="0"
           inkscape:label="conn83 (quadrant point)" />
        <path
           style="display:inline;fill:none;fill-rule:evenodd;stroke:#000000;stroke-width:0.396875;stroke-linecap:butt;stroke-linejoin:miter;stroke-dasharray:none;stroke-opacity:1;marker-start:url(#Dot);marker-end:url(#Dot)"
           d="m 112.10639,91.166496 -7.02113,-0.382769"
           id="path29-8-17"
           inkscape:connector-type="polyline"
           inkscape:connector-curvature="0"
           inkscape:label="conn84" />
        <path
           style="display:inline;fill:none;fill-rule:evenodd;stroke:#000000;stroke-width:0.396875;stroke-linecap:butt;stroke-linejoin:miter;stroke-dasharray:none;stroke-opacity:1;marker-start:url(#Dot);marker-end:url(#Dot)"
           d="m 102.76758,90.803833 -9.015654,1.222075"
           id="path29-8-36"
           inkscape:connector-type="polyline"
           inkscape:connector-curvature="0"
           inkscape:label="conn85" />
        <path
           style="display:inline;fill:none;fill-rule:evenodd;stroke:#000000;stroke-width:0.396875;stroke-linecap:butt;stroke-linejoin:miter;stroke-dasharray:none;stroke-opacity:1;marker-start:url(#Dot);marker-end:url(#Dot)"
           d="m 103.92502,89.462385 -1.19589,-8.313076"
           id="path29-8-02"
           inkscape:connector-type="polyline"
           inkscape:connector-curvature="0"
           inkscape:label="conn86 (quadrant point)" />
        <path
           style="display:inline;fill:none;fill-rule:evenodd;stroke:#000000;stroke-width:0.396875;stroke-linecap:butt;stroke-linejoin:miter;stroke-dasharray:none;stroke-opacity:1;marker-start:url(#Dot);marker-end:url(#Dot)"
           d="m 112.70979,77.678873 -8.8106,2.300375"
           id="path29-8-25"
           inkscape:connector-type="polyline"
           inkscape:connector-curvature="0"
           inkscape:label="conn87 (quadrant point)" />
        <path
           style="display:inline;fill:none;fill-rule:evenodd;stroke:#000000;stroke-width:0.396875;stroke-linecap:butt;stroke-linejoin:miter;stroke-dasharray:none;stroke-opacity:1;marker-start:url(#Dot);marker-end:url(#Dot)"
           d="m 118.09512,131.96891 -5.95086,5.11576"
           id="path29-1"
           inkscape:connector-type="polyline"
           inkscape:connector-curvature="0"
           inkscape:label="conn98" />
        <path
           style="display:inline;fill:none;fill-rule:evenodd;stroke:#000000;stroke-width:0.396875;stroke-linecap:butt;stroke-linejoin:miter;stroke-dasharray:none;stroke-opacity:1;marker-start:url(#Dot);marker-end:url(#Dot)"
           d="m 118.35998,130.03838 -3.09969,-8.64161"
           id="path29-9"
           inkscape:connector-type="polyline"
           inkscape:connector-curvature="0"
           inkscape:label="conn99" />
        <path
           style="display:inline;fill:none;fill-rule:evenodd;stroke:#000000;stroke-width:0.396875;stroke-linecap:butt;stroke-linejoin:miter;stroke-dasharray:none;stroke-opacity:1;marker-start:url(#Dot-1);marker-end:url(#Dot-1)"
           d="m 101.97482,116.62553 -6.917712,-0.24251"
           id="path29-64-6"
           inkscape:connector-type="polyline"
           inkscape:connector-curvature="0"
           inkscape:label="conn101 (quadrant point)" />
      </g>
    </g>
    <g
       id="layer2"
       inkscape:label="Nodes"
       transform="translate(61.647913,49.212499)"
       style="fill:#000000;fill-opacity:1">
      <g
         id="g1"
         inkscape:label="Edge Nodes"
         style="display:inline;fill:#000000;fill-opacity:1"
         inkscape:export-filename="redistributed-mesh.svg"
         inkscape:export-xdpi="500.65"
         inkscape:export-ydpi="500.65"
         transform="translate(-61.647914,-49.2125)">
        <circle
           style="fill:#000000;fill-opacity:1;fill-rule:evenodd;stroke:none;stroke-width:0;stroke-dasharray:none;stroke-opacity:1"
           id="path1-5-4"
           cx="128.82558"
           cy="155.24658"
           r="1.1700612"
           inkscape:label="node4" />
        <circle
           style="fill:#000000;fill-opacity:1;fill-rule:evenodd;stroke:none;stroke-width:0;stroke-dasharray:none;stroke-opacity:1"
           id="path1-5-4-8-4"
           cx="114.23913"
           cy="167.46486"
           r="1.1700612"
           inkscape:label="node6" />
        <circle
           style="fill:#000000;fill-opacity:1;fill-rule:evenodd;stroke:none;stroke-width:0;stroke-dasharray:none;stroke-opacity:1"
           id="path1-5-4-8-4-9"
           cx="96.064529"
           cy="173.04671"
           r="1.1700612"
           inkscape:label="node7" />
        <circle
           style="fill:#000000;fill-opacity:1;fill-rule:evenodd;stroke:none;stroke-width:0;stroke-dasharray:none;stroke-opacity:1"
           id="path1-5-4-8-4-9-8"
           cx="79.225655"
           cy="172.34508"
           r="1.1700612"
           inkscape:label="node8" />
        <circle
           style="fill:#000000;fill-opacity:1;fill-rule:evenodd;stroke:none;stroke-width:0;stroke-dasharray:none;stroke-opacity:1"
           id="path1-5-4-8-4-9-8-6-0-1-2"
           cx="79.315872"
           cy="143.92688"
           r="1.1700612"
           inkscape:label="node10" />
        <circle
           style="fill:#000000;fill-opacity:1;fill-rule:evenodd;stroke:none;stroke-width:0;stroke-dasharray:none;stroke-opacity:1"
           id="path1-5-4-8-4-9-8-6-0-1-2-0"
           cx="80.483826"
           cy="120.96278"
           r="1.1700612"
           inkscape:label="node11" />
        <circle
           style="fill:#000000;fill-opacity:1;fill-rule:evenodd;stroke:none;stroke-width:0;stroke-dasharray:none;stroke-opacity:1"
           id="path1-5-4-8-4-9-8-6-0-1-2-0-9-9-1-7-3-3-1"
           cx="132.21167"
           cy="144.94069"
           r="1.1700612"
           inkscape:label="node12" />
        <circle
           style="fill:#000000;fill-opacity:1;fill-rule:evenodd;stroke:none;stroke-width:0;stroke-dasharray:none;stroke-opacity:1"
           id="path1-5-4-8-4-9-8-6-0-1-2-0-9-9-1-7-3-3-1-9"
           cx="128.66693"
           cy="121.34391"
           r="1.1700612"
           inkscape:label="node13" />
        <circle
           style="fill:#000000;fill-opacity:1;fill-rule:evenodd;stroke:none;stroke-width:0;stroke-dasharray:none;stroke-opacity:1"
           id="path1-5-4-8-4-9-8-6-0-1-2-0-9-9-1-7-3-3-1-9-5-3-1-8-0"
           cx="78.551979"
           cy="101.41383"
           r="1.1700612"
           inkscape:label="node21" />
        <circle
           style="fill:#000000;fill-opacity:1;fill-rule:evenodd;stroke:none;stroke-width:0;stroke-dasharray:none;stroke-opacity:1"
           id="path1-5-4-8-4-9-8-6-0-1-2-0-9-9-1-7-3-3-1-9-5-3-1-8-0-4-6-1-7-5-3-1-4"
           cx="130.69063"
           cy="109.68492"
           r="1.1700612"
           inkscape:label="node14" />
        <circle
           style="fill:#000000;fill-opacity:1;fill-rule:evenodd;stroke:none;stroke-width:0;stroke-dasharray:none;stroke-opacity:1"
           id="path1-5-4-8-4-9-8-6-0-1-2-0-9-9-1-7-3-3-1-9-5-3-1-8-0-4-6-1-7-5-3-1-4-8"
           cx="129.423"
           cy="101.2799"
           r="1.1700612"
           inkscape:label="node15" />
        <circle
           style="fill:#000000;fill-opacity:1;fill-rule:evenodd;stroke:none;stroke-width:0;stroke-dasharray:none;stroke-opacity:1"
           id="path1-5-4-8-4-9-8-6-0-1-2-0-9-9-1-7-3-3-1-9-5-3-1-8-0-4-6-1-7-5-3-1-4-8-8"
           cx="129.46849"
           cy="81.988983"
           r="1.1700612"
           inkscape:label="node16" />
        <circle
           style="fill:#000000;fill-opacity:1;fill-rule:evenodd;stroke:none;stroke-width:0;stroke-dasharray:none;stroke-opacity:1"
           id="path1-5-4-8-4-9-8-6-0-1-2-0-9-9-1-7-3-3-1-9-5-3-1-8-0-4-6-1-7-5-3-1-4-8-8-7-3-9-0-6"
           cx="75.306061"
           cy="85.44706"
           r="1.1700612"
           inkscape:label="node20" />
        <circle
           style="fill:#000000;fill-opacity:1;fill-rule:evenodd;stroke:none;stroke-width:0;stroke-dasharray:none;stroke-opacity:1"
           id="path1-5-4-8-4-9-8-6-0-1-2-0-9-9-1-7-3-3-1-9-5-3-1-8-0-4-6-1-7-5-3-1-4-8-8-7-3-9-0-6-4-4"
           cx="79.420059"
           cy="60.489059"
           r="1.1700612"
           inkscape:label="node18" />
        <circle
           style="fill:#000000;fill-opacity:1;fill-rule:evenodd;stroke:none;stroke-width:0;stroke-dasharray:none;stroke-opacity:1"
           id="path1-5-4-8-4-9-8-6-0-1-2-0-9-9-1-7-3-3-1-9-5-3-1-8-0-4-6-1-7-5-3-1-4-8-8-7-3-9-0-6-4-4-8"
           cx="94.952065"
           cy="65.723061"
           r="1.1700612"
           inkscape:label="node17" />
        <circle
           style="fill:#000000;fill-opacity:1;fill-rule:evenodd;stroke:none;stroke-width:0;stroke-dasharray:none;stroke-opacity:1"
           id="path1-5-4-8-4-9-8-6-0-1-2-0-9-9-1-7-3-3-1-9-5-3-1-8-0-4-6-1-7-5-3-1-4-8-8-7-3-9-0-6-4-4-8-8"
           cx="110.35771"
           cy="66.297699"
           r="1.1700612"
           inkscape:label="node3" />
        <circle
           style="display:inline;fill:#000000;fill-opacity:1;fill-rule:evenodd;stroke:none;stroke-width:0;stroke-dasharray:none;stroke-opacity:1"
           id="path1-5-4-8-4-9-8-6-0-1-2-0-9-9-1-7-3-3-1-9-5-3-1-8-0-4-6-1-7-5-3-1-4-8-8-7-3-9-0-6-4-4-8-8-0-0"
           cx="126.4513"
           cy="56.070972"
           r="1.1700612"
           inkscape:label="node1"
           transform="translate(-1.0208333e-6)" />
        <circle
           style="display:inline;fill:#000000;fill-opacity:1;fill-rule:evenodd;stroke:none;stroke-width:0;stroke-dasharray:none;stroke-opacity:1"
           id="path1-5-4-8"
           cx="117.82714"
           cy="157.85966"
           r="1.1700612"
           inkscape:label="node5" />
        <circle
           style="display:inline;fill:#000000;fill-opacity:1;fill-rule:evenodd;stroke:none;stroke-width:0;stroke-dasharray:none;stroke-opacity:1"
           id="path1-5-4-8-4-9-8-6"
           cx="85.689354"
           cy="162.77527"
           r="1.1700612"
           inkscape:label="node9" />
        <circle
           style="display:inline;fill:#000000;fill-opacity:1;fill-rule:evenodd;stroke:none;stroke-width:0;stroke-dasharray:none;stroke-opacity:1"
           id="path1-5-4-8-4-9-8-6-0-1-2-0-9-9-1-7-3-3-1-9-5-3-1-8-0-4-6-1-7-5-3-1-4-8-8-7-3-9-0-6-4-4-8-8-0"
           cx="123.32137"
           cy="72.041229"
           r="1.1700612"
           inkscape:label="node2" />
        <circle
           style="display:inline;fill:#000000;fill-opacity:1;fill-rule:evenodd;stroke:none;stroke-width:0;stroke-dasharray:none;stroke-opacity:1"
           id="path1-5-4-8-4-9-8-6-0-1-2-0-9-9-1-7-3-3-1-9-5-3-1-8-0-4-6-1-7-5-3-1-4-8-8-7-3-9-0-6-4"
           cx="80.022202"
           cy="70.863525"
           r="1.1700612"
           inkscape:label="node19" />
      </g>
      <g
         id="g2"
         inkscape:label="Core Nodes"
         style="display:inline;fill:#000000;fill-opacity:1"
         transform="translate(-61.647914,-49.2125)"
         inkscape:export-filename="redistributed-mesh.svg"
         inkscape:export-xdpi="500.65"
         inkscape:export-ydpi="500.65">
        <circle
           style="fill:#000000;fill-opacity:1;fill-rule:evenodd;stroke:none;stroke-width:0;stroke-dasharray:none;stroke-opacity:1"
           id="path1"
           cx="118.86943"
           cy="131.09171"
           r="1.1700612"
           inkscape:label="node26" />
        <circle
           style="fill:#000000;fill-opacity:1;fill-rule:evenodd;stroke:none;stroke-width:0;stroke-dasharray:none;stroke-opacity:1"
           id="path1-5"
           cx="121.93787"
           cy="147.83124"
           r="1.1700612"
           inkscape:label="node25" />
        <circle
           style="fill:#000000;fill-opacity:1;fill-rule:evenodd;stroke:none;stroke-width:0;stroke-dasharray:none;stroke-opacity:1"
           id="path1-5-4-8-4-9-8-6-0"
           cx="94.988647"
           cy="161.68913"
           r="1.1700612"
           inkscape:label="node2" />
        <circle
           style="fill:#000000;fill-opacity:1;fill-rule:evenodd;stroke:none;stroke-width:0;stroke-dasharray:none;stroke-opacity:1"
           id="path1-5-4-8-4-9-8-6-0-1"
           cx="93.107597"
           cy="153.2399"
           r="1.1700612"
           inkscape:label="node3" />
        <circle
           style="fill:#000000;fill-opacity:1;fill-rule:evenodd;stroke:none;stroke-width:0;stroke-dasharray:none;stroke-opacity:1"
           id="path1-5-4-8-4-9-8-6-0-1-2-0-9"
           cx="89.367157"
           cy="135.84499"
           r="1.1700612"
           inkscape:label="node4" />
        <circle
           style="fill:#000000;fill-opacity:1;fill-rule:evenodd;stroke:none;stroke-width:0;stroke-dasharray:none;stroke-opacity:1"
           id="path1-5-4-8-4-9-8-6-0-1-2-0-9-9"
           cx="98.43251"
           cy="139.91455"
           r="1.1700612"
           inkscape:label="node5" />
        <circle
           style="fill:#000000;fill-opacity:1;fill-rule:evenodd;stroke:none;stroke-width:0;stroke-dasharray:none;stroke-opacity:1"
           id="path1-5-4-8-4-9-8-6-0-1-2-0-9-9-1"
           cx="102.78794"
           cy="129.20291"
           r="1.1700612"
           inkscape:label="node6" />
        <circle
           style="fill:#000000;fill-opacity:1;fill-rule:evenodd;stroke:none;stroke-width:0;stroke-dasharray:none;stroke-opacity:1"
           id="path1-5-4-8-4-9-8-6-0-1-2-0-9-9-1-7"
           cx="111.29595"
           cy="137.89053"
           r="1.1700612"
           inkscape:label="node7" />
        <circle
           style="fill:#000000;fill-opacity:1;fill-rule:evenodd;stroke:none;stroke-width:0;stroke-dasharray:none;stroke-opacity:1"
           id="path1-5-4-8-4-9-8-6-0-1-2-0-9-9-1-7-3"
           cx="105.45992"
           cy="145.01445"
           r="1.1700612"
           inkscape:label="node8" />
        <circle
           style="fill:#000000;fill-opacity:1;fill-rule:evenodd;stroke:none;stroke-width:0;stroke-dasharray:none;stroke-opacity:1"
           id="path1-5-4-8-4-9-8-6-0-1-2-0-9-9-1-7-3-3"
           cx="104.78461"
           cy="161.2115"
           r="1.1700612"
           inkscape:label="node9" />
        <circle
           style="fill:#000000;fill-opacity:1;fill-rule:evenodd;stroke:none;stroke-width:0;stroke-dasharray:none;stroke-opacity:1"
           id="path1-5-4-8-4-9-8-6-0-1-2-0-9-9-1-7-3-3-1-9-5"
           cx="114.83962"
           cy="120.30495"
           r="1.1700612"
           inkscape:label="node10" />
        <circle
           style="fill:#000000;fill-opacity:1;fill-rule:evenodd;stroke:none;stroke-width:0;stroke-dasharray:none;stroke-opacity:1"
           id="path1-5-4-8-4-9-8-6-0-1-2-0-9-9-1-7-3-3-1-9-5-3"
           cx="103.12973"
           cy="116.43781"
           r="1.1700612"
           inkscape:label="node11" />
        <circle
           style="fill:#000000;fill-opacity:1;fill-rule:evenodd;stroke:none;stroke-width:0;stroke-dasharray:none;stroke-opacity:1"
           id="path1-5-4-8-4-9-8-6-0-1-2-0-9-9-1-7-3-3-1-9-5-3-1"
           cx="93.887047"
           cy="116.38302"
           r="1.1700612"
           inkscape:label="node12" />
        <circle
           style="fill:#000000;fill-opacity:1;fill-rule:evenodd;stroke:none;stroke-width:0;stroke-dasharray:none;stroke-opacity:1"
           id="path1-5-4-8-4-9-8-6-0-1-2-0-9-9-1-7-3-3-1-9-5-3-1-8"
           cx="89.000259"
           cy="110.03416"
           r="1.1700612"
           inkscape:label="node13" />
        <circle
           style="fill:#000000;fill-opacity:1;fill-rule:evenodd;stroke:none;stroke-width:0;stroke-dasharray:none;stroke-opacity:1"
           id="path1-5-4-8-4-9-8-6-0-1-2-0-9-9-1-7-3-3-1-9-5-3-1-8-0-4"
           cx="85.85553"
           cy="96.720238"
           r="1.1700612"
           inkscape:label="node14" />
        <circle
           style="fill:#000000;fill-opacity:1;fill-rule:evenodd;stroke:none;stroke-width:0;stroke-dasharray:none;stroke-opacity:1"
           id="path1-5-4-8-4-9-8-6-0-1-2-0-9-9-1-7-3-3-1-9-5-3-1-8-0-4-6"
           cx="103.61931"
           cy="105.01782"
           r="1.1700612"
           inkscape:label="node15" />
        <circle
           style="fill:#000000;fill-opacity:1;fill-rule:evenodd;stroke:none;stroke-width:0;stroke-dasharray:none;stroke-opacity:1"
           id="path1-5-4-8-4-9-8-6-0-1-2-0-9-9-1-7-3-3-1-9-5-3-1-8-0-4-6-5"
           cx="92.594765"
           cy="92.199173"
           r="1.1700612"
           inkscape:label="node16" />
        <circle
           style="fill:#000000;fill-opacity:1;fill-rule:evenodd;stroke:none;stroke-width:0;stroke-dasharray:none;stroke-opacity:1"
           id="path1-5-4-8-4-9-8-6-0-1-2-0-9-9-1-7-3-3-1-9-5-3-1-8-0-4-6-1"
           cx="103.92502"
           cy="90.632446"
           r="1.1700612"
           inkscape:label="node17" />
        <circle
           style="fill:#000000;fill-opacity:1;fill-rule:evenodd;stroke:none;stroke-width:0;stroke-dasharray:none;stroke-opacity:1"
           id="path1-5-4-8-4-9-8-6-0-1-2-0-9-9-1-7-3-3-1-9-5-3-1-8-0-4-6-1-7"
           cx="113.26916"
           cy="91.036041"
           r="1.1700612"
           inkscape:label="node18" />
        <circle
           style="fill:#000000;fill-opacity:1;fill-rule:evenodd;stroke:none;stroke-width:0;stroke-dasharray:none;stroke-opacity:1"
           id="path1-5-4-8-4-9-8-6-0-1-2-0-9-9-1-7-3-3-1-9-5-3-1-8-0-4-6-1-7-5"
           cx="117.62289"
           cy="98.538109"
           r="1.1700612"
           inkscape:label="node19" />
        <circle
           style="fill:#000000;fill-opacity:1;fill-rule:evenodd;stroke:none;stroke-width:0;stroke-dasharray:none;stroke-opacity:1"
           id="path1-5-4-8-4-9-8-6-0-1-2-0-9-9-1-7-3-3-1-9-5-3-1-8-0-4-6-1-7-5-3"
           cx="114.25473"
           cy="113.77045"
           r="1.1700612"
           inkscape:label="node20" />
        <circle
           style="fill:#000000;fill-opacity:1;fill-rule:evenodd;stroke:none;stroke-width:0;stroke-dasharray:none;stroke-opacity:1"
           id="path1-5-4-8-4-9-8-6-0-1-2-0-9-9-1-7-3-3-1-9-5-3-1-8-0-4-6-1-7-5-3-1"
           cx="122.94072"
           cy="113.42113"
           r="1.1700612"
           inkscape:label="node21" />
        <circle
           style="fill:#000000;fill-opacity:1;fill-rule:evenodd;stroke:none;stroke-width:0;stroke-dasharray:none;stroke-opacity:1"
           id="path1-5-4-8-4-9-8-6-0-1-2-0-9-9-1-7-3-3-1-9-5-3-1-8-0-4-6-1-7-5-3-1-4-8-8-7"
           cx="113.8654"
           cy="77.495575"
           r="1.1700612"
           inkscape:label="node22" />
        <circle
           style="fill:#000000;fill-opacity:1;fill-rule:evenodd;stroke:none;stroke-width:0;stroke-dasharray:none;stroke-opacity:1"
           id="path1-5-4-8-4-9-8-6-0-1-2-0-9-9-1-7-3-3-1-9-5-3-1-8-0-4-6-1-7-5-3-1-4-8-8-7-3"
           cx="102.72913"
           cy="79.979248"
           r="1.1700612"
           inkscape:label="node23" />
        <circle
           style="fill:#000000;fill-opacity:1;fill-rule:evenodd;stroke:none;stroke-width:0;stroke-dasharray:none;stroke-opacity:1"
           id="path1-5-4-8-4-9-8-6-0-1-2-0-9-9-1-7-3-3-1-9-5-3-1-8-0-4-6-1-7-5-3-1-4-8-8-7-3-9"
           cx="89.515991"
           cy="77.932968"
           r="1.1700612"
           inkscape:label="node24" />
        <circle
           style="fill:#000000;fill-opacity:1;fill-rule:evenodd;stroke:none;stroke-width:0;stroke-dasharray:none;stroke-opacity:1"
           id="path1-5-4-8-4-9-8-6-0-1-2-0-9-9-1-7-3-3-1-9-5-3-1-8-0-4-6-1-7-5-3-1-4-8-8-7-3-9-0"
           cx="84.539856"
           cy="87.843575"
           r="1.1700612"
           inkscape:label="node1" />
      </g>
    </g>
  </g>
</svg>
